%YAML 1.1
%TAG !u! tag:unity3d.com,2011:
--- !u!114 &11400000
MonoBehaviour:
  m_ObjectHideFlags: 0
  m_CorrespondingSourceObject: {fileID: 0}
  m_PrefabInstance: {fileID: 0}
  m_PrefabAsset: {fileID: 0}
  m_GameObject: {fileID: 0}
  m_Enabled: 1
  m_EditorHideFlags: 0
  m_Script: {fileID: 11500000, guid: 8cef8bac939ef2846b9fd7ad43164644, type: 3}
  m_Name: Dialogue1
  m_EditorClassIdentifier: 
  <DialogueName>k__BackingField: Dialogue1
  <Text>k__BackingField: Dialogue text.
  <Choices>k__BackingField:
  - <Text>k__BackingField: Next Dialogue
    <NextDialogue>k__BackingField: {fileID: 0}
  <DialogueType>k__BackingField: 0
  <IsStartingDialogue>k__BackingField: 1
